[gd_scene load_steps=5 format=2]

[ext_resource path="res://StonePlatform.tscn" type="PackedScene" id=1]
[ext_resource path="res://BlueShip.tscn" type="PackedScene" id=2]
[ext_resource path="res://SnowPlatform.tscn" type="PackedScene" id=3]
[ext_resource path="res://GreenShip.tscn" type="PackedScene" id=4]

[node name="Main" type="Node"]

[node name="PlatformBlue" type="Node2D" parent="."]
position = Vector2( 35, 565 )

[node name="StonePlatform" parent="PlatformBlue" instance=ExtResource( 1 )]
position = Vector2( -3.05176e-05, -0.00012207 )

[node name="StonePlatform2" parent="PlatformBlue" instance=ExtResource( 1 )]
position = Vector2( 70, 0 )

[node name="BlueShip" parent="." instance=ExtResource( 2 )]
position = Vector2( 69.3373, 420.219 )
rotation = 0.0174533

[node name="PlatformWhite" type="Node2D" parent="."]
position = Vector2( 396.903, 554.992 )

[node name="SnowPlatform" parent="PlatformWhite" instance=ExtResource( 3 )]

[node name="GreenShip" parent="." instance=ExtResource( 4 )]
position = Vector2( 400.266, 279.177 )
